<?xml version="1.0" encoding="UTF-8" standalone="no"?>
<!-- Created with Inkscape (http://www.inkscape.org/) -->

<svg
   xmlns:dc="http://purl.org/dc/elements/1.1/"
   xmlns:cc="http://creativecommons.org/ns#"
   xmlns:rdf="http://www.w3.org/1999/02/22-rdf-syntax-ns#"
   xmlns:svg="http://www.w3.org/2000/svg"
   xmlns="http://www.w3.org/2000/svg"
   xmlns:xlink="http://www.w3.org/1999/xlink"
   xmlns:sodipodi="http://sodipodi.sourceforge.net/DTD/sodipodi-0.dtd"
   xmlns:inkscape="http://www.inkscape.org/namespaces/inkscape"
   width="300"
   height="300"
   id="svg2"
   version="1.1"
   inkscape:version="0.48.4 r9939"
   sodipodi:docname="epictriangle_emptyalbum.svg"
   inkscape:export-filename="C:\Webserver\xampp\htdocs\musicp2pserver\style\epictriangle_emptyalbum.png"
   inkscape:export-xdpi="90"
   inkscape:export-ydpi="90">
  <defs
     id="defs4">
    <linearGradient
       id="linearGradient3796">
      <stop
         style="stop-color:#7e7e7e;stop-opacity:1;"
         offset="0"
         id="stop3798" />
      <stop
         style="stop-color:#03f558;stop-opacity:1;"
         offset="1"
         id="stop3800" />
    </linearGradient>
    <linearGradient
       inkscape:collect="always"
       xlink:href="#linearGradient3796"
       id="linearGradient3802"
       x1="252.18741"
       y1="398.17606"
       x2="252.18741"
       y2="243.8893"
       gradientUnits="userSpaceOnUse"
       gradientTransform="matrix(0.65360437,0,0,0.65360437,87.09376,118.09792)" />
  </defs>
  <sodipodi:namedview
     id="base"
     pagecolor="#000000"
     bordercolor="#666666"
     borderopacity="1.0"
     inkscape:pageopacity="1"
     inkscape:pageshadow="2"
     inkscape:zoom="1"
     inkscape:cx="560.16635"
     inkscape:cy="109.09944"
     inkscape:document-units="px"
     inkscape:current-layer="layer1"
     showgrid="false"
     showguides="false"
     inkscape:guide-bbox="true"
     inkscape:window-width="1920"
     inkscape:window-height="1009"
     inkscape:window-x="1912"
     inkscape:window-y="-8"
     inkscape:window-maximized="1"
     fit-margin-top="0"
     fit-margin-left="0"
     fit-margin-right="0"
     fit-margin-bottom="0">
    <sodipodi:guide
       orientation="-0.5,0.8660254"
       position="-0.04790894,-0.022061115"
       id="guide3765" />
    <sodipodi:guide
       orientation="0.5,0.8660254"
       position="270.04975,-0.018161115"
       id="guide3767" />
    <sodipodi:guide
       orientation="1,0"
       position="135.00566,232.94557"
       id="guide3769" />
  </sodipodi:namedview>
  <metadata
     id="metadata7">
    <rdf:RDF>
      <cc:Work
         rdf:about="">
        <dc:format>image/svg+xml</dc:format>
        <dc:type
           rdf:resource="http://purl.org/dc/dcmitype/StillImage" />
        <dc:title></dc:title>
      </cc:Work>
    </rdf:RDF>
  </metadata>
  <g
     inkscape:label="Layer 1"
     inkscape:groupmode="layer"
     id="layer1"
     transform="translate(-116.42291,-118.87918)">
    <rect
       style="opacity:0.13274339;fill:#ffffff"
       id="rect3777"
       width="300"
       height="300"
       x="116.42291"
       y="118.87918" />
    <g
       id="g3787"
       style="opacity:0.34070796">
      <path
         inkscape:transform-center-y="-25.472778"
         d="m 386.43424,418.87918 -270.01133,0 135.00566,-233.83667 z"
         inkscape:randomized="0"
         inkscape:rounded="0"
         inkscape:flatsided="true"
         sodipodi:arg2="1.5707963"
         sodipodi:arg1="0.52359878"
         sodipodi:r2="77.945557"
         sodipodi:r1="155.89111"
         sodipodi:cy="340.93362"
         sodipodi:cx="251.42857"
         sodipodi:sides="3"
         id="path2985"
         style="fill:#a4a4a4;fill-opacity:1;stroke:none"
         sodipodi:type="star"
         transform="matrix(0.65360437,0,0,0.65360437,102.0881,71.516251)" />
      <g
         id="g3780"
         transform="matrix(1.3608617,0,0,1.3608617,-75.739713,-173.14465)">
        <path
           style="fill:url(#linearGradient3802);fill-opacity:1;stroke:none"
           inkscape:transform-center-y="-25.47278"
           d="m 339.66887,391.87918 -176.48059,0 88.24029,-152.83667 z"
           id="path3760"
           inkscape:connector-curvature="0"
           sodipodi:nodetypes="cccc" />
        <g
           id="g3775"
           transform="matrix(0.65360437,0,0,0.65360437,87.096034,118.09792)">
          <path
             sodipodi:nodetypes="cccc"
             inkscape:connector-curvature="0"
             id="path3755"
             d="m 386.43424,418.87918 -270.01133,0 135.00566,-77.94958 z"
             inkscape:transform-center-y="-38.97278"
             style="fill:#000000;fill-opacity:0.16470588000000000;stroke:none" />
          <path
             inkscape:transform-center-x="67.504815"
             style="fill:#ffffff;fill-opacity:0.57058823999999997;stroke:none"
             inkscape:transform-center-y="-38.97479"
             d="m 116.41943,418.87315 135.00566,-233.83668 0.003,155.89313 z"
             id="path3771"
             inkscape:connector-curvature="0"
             sodipodi:nodetypes="cccc" />
          <path
             sodipodi:nodetypes="cccc"
             inkscape:connector-curvature="0"
             id="path3773"
             d="M 251.43205,185.03648 386.43773,418.87315 251.42882,340.92918 z"
             inkscape:transform-center-y="-38.974785"
             style="fill:#ffffff;fill-opacity:0.90425535000000001;stroke:none"
             inkscape:transform-center-x="-67.5047" />
        </g>
      </g>
    </g>
    <text
       xml:space="preserve"
       style="font-size:40px;font-style:normal;font-weight:normal;line-height:125%;letter-spacing:0px;word-spacing:0px;fill:#000000;fill-opacity:1;stroke:none;font-family:Sans"
       x="72.582291"
       y="259.07306"
       id="text3765"
       sodipodi:linespacing="125%"><tspan
         sodipodi:role="line"
         id="tspan3767"
         x="72.582291"
         y="259.07306"
         style="fill:#ffffff" /></text>
    <text
       xml:space="preserve"
       style="font-size:55.71421051000000800px;font-style:normal;font-variant:normal;font-weight:bold;font-stretch:normal;text-align:center;line-height:226.99999809000002000%;letter-spacing:0px;word-spacing:0px;text-anchor:middle;fill:#ffffff;fill-opacity:1;stroke:none;font-family:Quicksand;-inkscape-font-specification:Quicksand Bold;opacity:0.65929204"
       x="265.92926"
       y="225.61684"
       id="text3771"
       sodipodi:linespacing="227%"><tspan
         sodipodi:role="line"
         id="tspan3773"
         x="265.92926"
         y="225.61684">No Cover</tspan><tspan
         sodipodi:role="line"
         x="265.92926"
         y="352.0881"
         id="tspan3775">Found</tspan></text>
  </g>
</svg>
